…
``` r
# To see the R console output with query processing information, turn queit to FALSE
dat <- bq_project_query(billing, dat_query, quiet = TRUE)
# Transform the query result into a tibble
dat <- bq_table_download(dat, quiet = TRUE)
dat
```

    ## # A tibble: 375 x 3
    ##    sample_barcode   group_name  expr
    ##    <chr>            <chr>      <dbl>
    ##  1 TCGA-AR-A24P-01A SNP         3.12
    ##  2 TCGA-BH-A0RX-01A SNP         3.03
    ##  3 TCGA-BH-A1FD-01A SNP         3.36
    ##  4 TCGA-A8-A08R-01A INS         2.74
    ##  5 TCGA-LL-A73Y-01A SNP         2.77
    ##  6 TCGA-GM-A2DD-01A SNP         3.37
    ##  7 TCGA-E2-A155-01A SNP         2.98
    ##  8 TCGA-E2-A1LG-01A DEL         3.41
    ##  9 TCGA-BH-A1FE-01A SNP         3.23
    ## 10 TCGA-PE-A5DE-01A SNP         3.14
    ## # ... with 365 more rows
…
