…
  `isb-cgc.TCGA_hg38_data_v0.Somatic_Mutation_DR10`
WHERE
  Hugo_Symbol = 'PARP1'
GROUP BY
  project_short_name
ORDER BY
  n DESC"
# To see the R console output with query processing information, turn queit to FALSE
PARP1_result <- bq_project_query(billing, PARP1_query, quiet = TRUE)
# Transform the query result into a tibble
PARP1_result <- bq_table_download(PARP1_result, quiet = TRUE)
PARP1_result
```

    ## # A tibble: 22 x 2
    ##    project_short_name     n
    ##    <chr>              <int>
    ##  1 TCGA-UCEC             46
    ##  2 TCGA-COAD             22
    ##  3 TCGA-STAD             22
    ##  4 TCGA-BRCA             17
    ##  5 TCGA-SKCM             16
    ##  6 TCGA-BLCA             15
    ##  7 TCGA-LUSC             12
    ##  8 TCGA-CESC              9
    ##  9 TCGA-GBM               8
    ## 10 TCGA-LUAD              6
    ## # ... with 12 more rows
…
``` r
# To see the R console output with query processing information, turn queit to FALSE
query1_result <- bq_project_query(billing, query1, quiet = TRUE) 
# Transform the query result into a tibble
query1_result <- bq_table_download(query1_result, quiet = TRUE)
query1_result
```

    ## # A tibble: 530 x 1
    ##    sample_barcode  
    ##    <chr>           
    ##  1 TCGA-A5-A0G1-01A
    ##  2 TCGA-A5-A0G2-01A
    ##  3 TCGA-A5-A0GP-01A
    ##  4 TCGA-AP-A1E0-01A
    ##  5 TCGA-AX-A1CE-01A
    ##  6 TCGA-BG-A221-01A
    ##  7 TCGA-DF-A2KN-01A
    ##  8 TCGA-E6-A1LX-01A
    ##  9 TCGA-EO-A22R-01A
    ## 10 TCGA-EO-A22U-01A
    ## # ... with 520 more rows
…
