…
``` r
# Create the SQL query
fields_query <- str_c("SELECT column_name
                        FROM `isb-cgc.GDC_metadata.INFORMATION_SCHEMA.COLUMNS`
                        WHERE table_name = '", curr_release, "_fileData_current'", sep = "")
# Query table
# To see the R console output with query processing information, turn queit to FALSE
fields_result <- bq_project_query(billing, fields_query, quiet = TRUE) 
# Transform the query result into a tibble
fields_result <- bq_table_download(fields_result, quiet = TRUE)
fields_result
```

    ## # A tibble: 38 x 1
    ##    column_name                             
    ##    <chr>                                   
    ##  1 dbName                                  
    ##  2 file_gdc_id                             
    ##  3 access                                  
    ##  4 acl                                     
    ##  5 analysis_input_file_gdc_ids             
    ##  6 analysis_workflow_link                  
    ##  7 analysis_workflow_type                  
    ##  8 associated_entities__case_gdc_id        
    ##  9 associated_entities__entity_gdc_id      
    ## 10 associated_entities__entity_submitter_id
    ## # ... with 28 more rows
…
``` r
FM_gdc_file_query <- str_c("SELECT file_gdc_id
                     FROM `isb-cgc.GDC_metadata.", curr_release, "_fileData_current`
                     WHERE program_name = 'FM' AND data_format = 'VCF' AND file_type =  'simple_somatic_mutation'", sep = "")
# Query table
# To see the R console output with query processing information, turn queit to FALSE
gdc_file_id <- bq_project_query(billing, FM_gdc_file_query, quiet = TRUE) 
# Transform the query result into a tibble
gdc_file_id <- bq_table_download(gdc_file_id, quiet = TRUE)
gdc_file_id
```

    ## # A tibble: 18,004 x 1
    ##    file_gdc_id                         
    ##    <chr>                               
    ##  1 7c9a2c2b-4401-47c6-918f-c0032f9c72a7
    ##  2 2c9d1e76-1c74-41dd-aa38-43d2f2f55e4e
    ##  3 a7e3fd83-49be-4633-8e46-9fbdfe7ba741
    ##  4 ac26d85c-efa2-42a2-b63a-58b89f0c9c1c
    ##  5 a1f089d2-d5dc-496a-8ec2-faaac1225d86
    ##  6 e1f4ad4d-9096-4080-b276-db8936882f51
    ##  7 e23cdeae-be46-468c-9a3c-f7eade3413ec
    ##  8 24b429de-0f3b-4c81-8505-d65bbda9c757
    ##  9 b8ad6936-9e05-455b-9edc-cb6c0db03da5
    ## 10 811abd12-df1e-486d-824a-1e5a5b74b6e7
    ## # ... with 17,994 more rows
…
                  WHERE program_name = '", program, "'
                  AND data_format = 'VCF' AND file_type =  'simple_somatic_mutation')
                  SELECT t2.file_gdc_url
                  FROM id AS t1
                  INNER JOIN `isb-cgc.GDC_metadata.", curr_release, "_GDCfileID_to_GCSurl_NEW` AS t2
                  ON t1.file_gdc_id = t2.file_gdc_id", sep = "")
# Query table
# To see the R console output with query processing information, turn queit to FALSE
gdc_file_url <- bq_project_query(billing, url_query, quiet = TRUE) 
# Transform the query result into a tibble
gdc_file_url <- bq_table_download(gdc_file_url, quiet = TRUE)
gdc_file_url
```

    ## # A tibble: 18,004 x 1
    ##    file_gdc_url                                                            
    ##    <chr>                                                                   
    ##  1 gs://gdc-fm-phs001179-controlled/a9130aed-b49d-4dd2-b611-b132b7ad7d28/a~
    ##  2 gs://gdc-fm-phs001179-controlled/b1c15a06-12d2-4a31-9dce-684e6b7c7133/b~
    ##  3 gs://gdc-fm-phs001179-controlled/01f4eddf-15df-4254-9a65-32501c704567/0~
    ##  4 gs://gdc-fm-phs001179-controlled/45bbf05a-3ad2-4923-bcc7-eaf625a79aa2/4~
    ##  5 gs://gdc-fm-phs001179-controlled/646fb13b-6471-4379-bd1f-0321b38f3694/6~
    ##  6 gs://gdc-fm-phs001179-controlled/fd3f7d0e-d38d-49e1-acb6-37fde1236f6b/f~
    ##  7 gs://gdc-fm-phs001179-controlled/ab3abe4c-6989-4328-acde-4a1208bb5dd7/a~
    ##  8 gs://gdc-fm-phs001179-controlled/acaf5498-3d82-44c0-a323-716e958407e0/a~
    ##  9 gs://gdc-fm-phs001179-controlled/3faea6ef-fc51-4f9e-8683-0d1efd86044d/3~
    ## 10 gs://gdc-fm-phs001179-controlled/ff3d1f20-d864-4725-ab38-b76b2ddbf47a/f~
    ## # ... with 17,994 more rows
…
# Query table
# To see the R console output with query processing information, turn queit to FALSE
cohort_to_url <- bq_project_query(billing, cohort_to_url_query, quiet = TRUE) 
# Transform the query result into a tibble
cohort_to_url <- bq_table_download(cohort_to_url, quiet = TRUE)
cohort_to_url
```

    ## # A tibble: 9,556 x 2
    ##    case_barcode file_gdc_url                                               
    ##    <chr>        <chr>                                                      
    ##  1 TCGA-3C-AALI gs://gdc-tcga-phs000178-open/c993c79e-ac58-423e-ae89-352d1~
    ##  2 TCGA-3C-AALI gs://gdc-tcga-phs000178-open/fe3ceb38-aecc-4efe-9d3d-2e802~
    ##  3 TCGA-3C-AALI gs://gdc-tcga-phs000178-controlled/a736c2d0-2c4b-433f-9eb3~
    ##  4 TCGA-3C-AALI gs://gdc-tcga-phs000178-open/00737aa1-d1da-4386-b444-8abad~
    ##  5 TCGA-3C-AALI gs://gdc-tcga-phs000178-open/ad8e6a02-4483-4049-ae7e-3a8a5~
    ##  6 TCGA-3C-AALI gs://gdc-tcga-phs000178-open/3703a961-f8eb-4b2e-8fb3-ebeb8~
    ##  7 TCGA-3C-AALI gs://gdc-tcga-phs000178-open/1bb15d67-0bcb-4d29-b186-2d57a~
    ##  8 TCGA-3C-AALI gs://gdc-tcga-phs000178-open/af436ccb-b052-4cb6-892c-d4f2e~
    ##  9 TCGA-3C-AALI gs://gdc-tcga-phs000178-controlled/213e9b8f-3d2f-4dad-89a6~
    ## 10 TCGA-3C-AALI gs://gdc-tcga-phs000178-open/8b71d07c-b166-4260-993a-89ecf~
    ## # ... with 9,546 more rows
