…
# Create the SQL query
sql_query1 <- "SELECT
                column_name
              FROM
                `isb-cgc.TCGA_bioclin_v0.INFORMATION_SCHEMA.COLUMNS`
              WHERE table_name = 'Clinical'"
# Use BigQuery to run the SQL query on the Clincal table from the TCGA_bioclin_v0 dataset
# To see the R console output with query processing information, turn queit to FALSE
result <- bq_project_query(billing, sql_query1, quiet = TRUE) 
# Transform the query result into a tibble
result <- bq_table_download(result, quiet = TRUE)
result
```

    ## # A tibble: 73 x 1
    ##    column_name                   
    ##    <chr>                         
    ##  1 program_name                  
    ##  2 case_barcode                  
    ##  3 case_gdc_id                   
    ##  4 program_dbgap_accession_number
    ##  5 project_short_name            
    ##  6 project_name                  
    ##  7 disease_code                  
    ##  8 gender                        
    ##  9 vital_status                  
    ## 10 race                          
    ## # ... with 63 more rows
…
